Chapter 5 Data preparation | Regression and Classification with Tidymodels
…
To view the current set of variables and roles, use the summary() function:

summary(housing_rec)
#> # A tibble: 8 x 4
#>   variable            type    role      source  
#>   <chr>               <chr>   <chr>     <chr>   
#> 1 longitude           numeric ID        original
#> 2 latitude            numeric ID        original
#> 3 median_income       numeric predictor original
#> 4 ocean_proximity     nominal predictor original
#> 5 bedrooms_per_room   numeric predictor original
#> 6 rooms_per_household numeric predictor original
#> # … with 2 more rows
…
