Chapter 11 Model building | Regression and Classification with Tidymodels
…
Note that Cohen’s kappa coefficient (κ) is a similar measure to accuracy, but is normalized by the accuracy that would be expected by chance alone and is very useful when one or more classes have large frequency distributions. The higher the value, the better.

11.3.1.1 Performance metrics

Show average performance over all folds:

log_res %>%  collect_metrics(summarize = TRUE)

#> # A tibble: 8 x 6
#>   .metric   .estimator  mean     n  std_err .config             
#>   <chr>     <chr>      <dbl> <int>    <dbl> <chr>               
#> 1 accuracy  binary     0.849     5 0.00283  Preprocessor1_Model1
#> 2 f_meas    binary     0.883     5 0.00243  Preprocessor1_Model1
#> 3 kap       binary     0.672     5 0.00569  Preprocessor1_Model1
#> 4 precision binary     0.871     5 0.000987 Preprocessor1_Model1
#> 5 recall    binary     0.896     5 0.00430  Preprocessor1_Model1
#> 6 roc_auc   binary     0.918     5 0.00117  Preprocessor1_Model1
#> # … with 2 more rows

Show performance for every single fold:

log_res %>%  collect_metrics(summarize = FALSE)

#> # A tibble: 40 x 5
#>   id    .metric   .estimator .estimate .config             
#>   <chr> <chr>     <chr>          <dbl> <chr>               
#> 1 Fold1 recall    binary         0.886 Preprocessor1_Model1
#> 2 Fold1 precision binary         0.868 Preprocessor1_Model1
#> 3 Fold1 f_meas    binary         0.877 Preprocessor1_Model1
#> 4 Fold1 accuracy  binary         0.842 Preprocessor1_Model1
#> 5 Fold1 kap       binary         0.658 Preprocessor1_Model1
#> 6 Fold1 sens      binary         0.886 Preprocessor1_Model1
#> # … with 34 more rows
…
rf_res <-
  rf_wflow %>% 
  fit_resamples(
    resamples = cv_folds, 
    metrics = metric_set(
      recall, precision, f_meas, 
      accuracy, kap,
      roc_auc, sens, spec),
    control = control_resamples(save_pred = TRUE)
    ) 

rf_res %>%  collect_metrics(summarize = TRUE)

#> # A tibble: 8 x 6
#>   .metric   .estimator  mean     n std_err .config             
#>   <chr>     <chr>      <dbl> <int>   <dbl> <chr>               
#> 1 accuracy  binary     0.858     5 0.00305 Preprocessor1_Model1
#> 2 f_meas    binary     0.889     5 0.00262 Preprocessor1_Model1
#> 3 kap       binary     0.690     5 0.00615 Preprocessor1_Model1
#> 4 precision binary     0.877     5 0.00175 Preprocessor1_Model1
#> 5 recall    binary     0.903     5 0.00510 Preprocessor1_Model1
#> 6 roc_auc   binary     0.926     5 0.00180 Preprocessor1_Model1
#> # … with 2 more rows
…
xgb_res <- 
  xgb_wflow %>% 
  fit_resamples(
    resamples = cv_folds, 
    metrics = metric_set(
      recall, precision, f_meas, 
      accuracy, kap,
      roc_auc, sens, spec),
    control = control_resamples(save_pred = TRUE)
    ) 

xgb_res %>% collect_metrics(summarize = TRUE)

#> # A tibble: 8 x 6
#>   .metric   .estimator  mean     n  std_err .config             
#>   <chr>     <chr>      <dbl> <int>    <dbl> <chr>               
#> 1 accuracy  binary     0.859     5 0.00262  Preprocessor1_Model1
#> 2 f_meas    binary     0.890     5 0.00235  Preprocessor1_Model1
#> 3 kap       binary     0.694     5 0.00508  Preprocessor1_Model1
#> 4 precision binary     0.881     5 0.000480 Preprocessor1_Model1
#> 5 recall    binary     0.898     5 0.00485  Preprocessor1_Model1
#> 6 roc_auc   binary     0.928     5 0.00121  Preprocessor1_Model1
#> # … with 2 more rows
…
knn_res <- 
  knn_wflow %>% 
  fit_resamples(
    resamples = cv_folds, 
    metrics = metric_set(
      recall, precision, f_meas, 
      accuracy, kap,
      roc_auc, sens, spec),
    control = control_resamples(save_pred = TRUE)
    ) 

knn_res %>% collect_metrics(summarize = TRUE)

#> # A tibble: 8 x 6
#>   .metric   .estimator  mean     n std_err .config             
#>   <chr>     <chr>      <dbl> <int>   <dbl> <chr>               
#> 1 accuracy  binary     0.803     5 0.00437 Preprocessor1_Model1
#> 2 f_meas    binary     0.845     5 0.00361 Preprocessor1_Model1
#> 3 kap       binary     0.575     5 0.00926 Preprocessor1_Model1
#> 4 precision binary     0.844     5 0.00402 Preprocessor1_Model1
#> 5 recall    binary     0.846     5 0.00565 Preprocessor1_Model1
#> 6 roc_auc   binary     0.883     5 0.00289 Preprocessor1_Model1
#> # … with 2 more rows
…
nnet_res <- 
  nnet_wflow %>% 
  fit_resamples(
    resamples = cv_folds, 
    metrics = metric_set(
      recall, precision, f_meas, 
      accuracy, kap,
      roc_auc, sens, spec),
    control = control_resamples(save_pred = TRUE)
    ) 

nnet_res %>% collect_metrics(summarize = TRUE)

#> # A tibble: 8 x 6
#>   .metric   .estimator  mean     n std_err .config             
#>   <chr>     <chr>      <dbl> <int>   <dbl> <chr>               
#> 1 accuracy  binary     0.857     5 0.00295 Preprocessor1_Model1
#> 2 f_meas    binary     0.888     5 0.00260 Preprocessor1_Model1
#> 3 kap       binary     0.690     5 0.00584 Preprocessor1_Model1
#> 4 precision binary     0.881     5 0.00142 Preprocessor1_Model1
#> 5 recall    binary     0.895     5 0.00522 Preprocessor1_Model1
#> 6 roc_auc   binary     0.926     5 0.00167 Preprocessor1_Model1
#> # … with 2 more rows
…
Tidymodels provides the function last_fit() which fits a model to the training data and evaluates it on the test set. We just need to provide the workflow object of the best model as well as the data split object (not the training data).

last_fit_rf <- last_fit(rf_wflow, 
                        split = data_split,
                        metrics = metric_set(
                          recall, precision, f_meas, 
                          accuracy, kap,
                          roc_auc, sens, spec))

# Show performance metrics
last_fit_rf %>% 
  collect_metrics()

#> # A tibble: 8 x 4
#>   .metric   .estimator .estimate .config             
#>   <chr>     <chr>          <dbl> <chr>               
#> 1 recall    binary         0.894 Preprocessor1_Model1
#> 2 precision binary         0.878 Preprocessor1_Model1
#> 3 f_meas    binary         0.886 Preprocessor1_Model1
#> 4 accuracy  binary         0.854 Preprocessor1_Model1
#> 5 kap       binary         0.683 Preprocessor1_Model1
#> 6 sens      binary         0.894 Preprocessor1_Model1
#> # … with 2 more rows
…
