Chapter 6 Model building | Regression and Classification with Tidymodels
…
Show average performance over all folds:

lasso_res %>%  collect_metrics(summarize = TRUE)
#> # A tibble: 2 x 6
#>   .metric .estimator  mean     n std_err .config             
#>   <chr>   <chr>      <dbl> <int>   <dbl> <chr>               
#> 1 rmse    standard   0.357     5 0.00119 Preprocessor1_Model1
#> 2 rsq     standard   0.608     5 0.00356 Preprocessor1_Model1

Show performance for every single fold:

lasso_res %>%  collect_metrics(summarize = FALSE)
#> # A tibble: 10 x 5
#>   id    .metric .estimator .estimate .config             
#>   <chr> <chr>   <chr>          <dbl> <chr>               
#> 1 Fold1 rmse    standard       0.356 Preprocessor1_Model1
#> 2 Fold1 rsq     standard       0.599 Preprocessor1_Model1
#> 3 Fold2 rmse    standard       0.354 Preprocessor1_Model1
#> 4 Fold2 rsq     standard       0.613 Preprocessor1_Model1
#> 5 Fold3 rmse    standard       0.361 Preprocessor1_Model1
#> 6 Fold3 rsq     standard       0.608 Preprocessor1_Model1
#> # … with 4 more rows
…
Let`s look at the 10 districts where our model produced the greatest residuals:

wrongest_prediction <- 
  assess_res %>% 
  mutate(residual = median_house_value - .pred) %>% 
  arrange(desc(abs(residual))) %>% 
  slice_head(n = 10)

wrongest_prediction
#> # A tibble: 10 x 6
#>   id    .pred  .row median_house_value .config              residual
#>   <chr> <dbl> <int>              <dbl> <chr>                   <dbl>
#> 1 Fold1  11.9  6523               9.62 Preprocessor1_Model1    -2.30
#> 2 Fold3  12.0  4197               9.77 Preprocessor1_Model1    -2.21
#> 3 Fold3  12.0  1348              10.0  Preprocessor1_Model1    -2.01
#> 4 Fold5  11.6  2084               9.62 Preprocessor1_Model1    -1.98
#> 5 Fold5  11.5  1868               9.62 Preprocessor1_Model1    -1.87
#> 6 Fold1  12.0 12383              10.3  Preprocessor1_Model1    -1.79
#> # … with 4 more rows

Show the observations in the training data.

train_data %>% 
  dplyr::slice(wrongest_prediction$.row) 
#> # A tibble: 10 x 8
#>   longitude latitude median_house_va… median_income ocean_proximity
#>       <dbl>    <dbl>            <dbl>         <dbl> <fct>          
#> 1     -118.     34.2            14999          4.19 INLAND         
#> 2     -118.     34.2            17500          2.37 <1H OCEAN      
#> 3     -122.     37.9            22500          2.68 NEAR BAY       
#> 4     -117.     36.4            14999          2.1  INLAND         
#> 5     -123.     39.7            14999          1.66 INLAND         
#> 6     -121.     34.7            28300          2.74 NEAR OCEAN     
#> # … with 4 more rows, and 3 more variables: bedrooms_per_room <dbl>,
#> #   rooms_per_household <dbl>, population_per_household <dbl>
…
